{ "height":8,
 "layers":[
        {
         "data":[1, 1, 4, 4, 4, 4, 4, 4, 4, 4, 4, 4, 4, 1, 1, 1, 3, 0, 0, 0, 0, 0, 0, 0, 0, 0, 0, 0, 2, 1, 1, 3, 0, 0, 0, 0, 0, 0, 0, 0, 0, 0, 0, 2, 1, 1, 3, 0, 0, 0, 0, 0, 0, 0, 0, 0, 0, 0, 2, 1, 1, 3, 0, 0, 0, 0, 0, 0, 0, 0, 0, 0, 0, 2, 1, 1, 3, 0, 0, 0, 0, 0, 0, 0, 1, 1, 1, 0, 2, 1, 1, 3, 0, 0, 0, 0, 0, 0, 0, 0, 0, 0, 0, 2, 1, 1, 1, 5, 5, 5, 5, 5, 5, 5, 5, 5, 5, 5, 1, 1],
         "height":8,
         "name":"Tile Layer 1",
         "opacity":1,
         "type":"tilelayer",
         "visible":true,
         "width":15,
         "x":0,
         "y":0
        }],
 "nextobjectid":1,
 "orientation":"orthogonal",
 "properties":
    {

    },
 "renderorder":"right-down",
 "tileheight":48,
 "tilesets":[
        {
         "firstgid":1,
         "image":"level2.png",
         "imageheight":48,
         "imagewidth":240,
         "margin":0,
         "name":"level2",
         "properties":
            {

            },
         "spacing":0,
         "tileheight":48,
         "tilewidth":48
        }],
 "tilewidth":48,
 "version":1,
 "width":15
}